<svg width="512" height="512" viewBox="0 0 512 512" fill="none" xmlns="http://www.w3.org/2000/svg">
<path d="M310.61 352.58H201.37C177.66 352.58 158.36 333.5 158.36 310.04V201.96C158.36 178.5 177.65 159.42 201.37 159.42H310.61C334.32 159.42 353.63 178.5 353.63 201.96V310.02C353.63 333.48 334.34 352.56 310.61 352.56V352.58ZM201.37 171.49C184.39 171.49 170.56 185.17 170.56 201.96V310.02C170.56 326.82 184.38 340.49 201.37 340.49H310.61C327.59 340.49 341.41 326.81 341.41 310.02V201.96C341.41 185.16 327.59 171.49 310.61 171.49H201.37Z" fill="#0080A9"/>
<path d="M286.04 205.02C284.13 205.02 282.46 205.67 281.03 206.95C279.56 208.26 278.83 210.12 278.83 212.44V248.79H233.04V212.44C233.04 210.14 232.32 208.28 230.92 206.97C229.53 205.67 227.87 205.02 225.95 205.02C224.03 205.02 222.36 205.67 220.94 206.95C219.47 208.26 218.74 210.12 218.74 212.44V299.7C218.74 301.93 219.49 303.73 220.94 305.05C222.36 306.33 224.05 306.98 225.95 306.98C227.85 306.98 229.53 306.33 230.92 305.03C232.33 303.72 233.04 301.92 233.04 299.7V262.38H278.83V299.7C278.83 301.93 279.58 303.73 281.03 305.05C282.45 306.33 284.14 306.98 286.04 306.98C287.94 306.98 289.63 306.33 291.05 305.05C292.52 303.74 293.25 301.93 293.25 299.7V212.44C293.25 210.12 292.52 208.27 291.05 206.95C289.63 205.67 287.94 205.02 286.04 205.02Z" fill="#0080A9"/>
<path d="M256 117.87C267.538 117.87 276.89 108.517 276.89 96.9799C276.89 85.4426 267.538 76.0898 256 76.0898C244.463 76.0898 235.11 85.4426 235.11 96.9799C235.11 108.517 244.463 117.87 256 117.87Z" stroke="#0080A9" stroke-width="8" stroke-miterlimit="10"/>
<path d="M256 117.869V159.649" stroke="#0080A9" stroke-width="8" stroke-miterlimit="10"/>
<path d="M256 435.911C267.538 435.911 276.89 426.558 276.89 415.021C276.89 403.484 267.538 394.131 256 394.131C244.463 394.131 235.11 403.484 235.11 415.021C235.11 426.558 244.463 435.911 256 435.911Z" stroke="#0080A9" stroke-width="8" stroke-miterlimit="10"/>
<path d="M256 394.13V352.35" stroke="#0080A9" stroke-width="8" stroke-miterlimit="10"/>
<path d="M97.7699 276.889C109.307 276.889 118.66 267.537 118.66 255.999C118.66 244.462 109.307 235.109 97.7699 235.109C86.2327 235.109 76.8799 244.462 76.8799 255.999C76.8799 267.537 86.2327 276.889 97.7699 276.889Z" stroke="#0080A9" stroke-width="8" stroke-miterlimit="10"/>
<path d="M118.66 256H160.44" stroke="#0080A9" stroke-width="8" stroke-miterlimit="10"/>
<path d="M414.23 276.889C425.767 276.889 435.12 267.537 435.12 255.999C435.12 244.462 425.767 235.109 414.23 235.109C402.693 235.109 393.34 244.462 393.34 255.999C393.34 267.537 402.693 276.889 414.23 276.889Z" stroke="#0080A9" stroke-width="8" stroke-miterlimit="10"/>
<path d="M393.34 256H351.56" stroke="#0080A9" stroke-width="8" stroke-miterlimit="10"/>
</svg>
