{
  "annotations": {
    "list": [
      {
        "builtIn": 1,
        "datasource": "-- Grafana --",
        "enable": true,
        "hide": true,
        "iconColor": "rgba(0, 211, 255, 1)",
        "limit": 100,
        "name": "Annotations & Alerts",
        "showIn": 0,
        "type": "dashboard"
      },
      {
        "datasource": "Prometheus",
        "enable": true,
        "expr": "resets(process_uptime_seconds{instance=\"$instance\"}[1m]) > 0",
        "iconColor": "rgba(255, 96, 96, 1)",
        "name": "Restart Detection",
        "showIn": 0,
        "step": "1m",
        "tagKeys": "restart-tag",
        "textFormat": "uptime reset",
        "titleFormat": "Restart"
      }
    ]
  },
  "description": "Vyne Rest Calls",
  "editable": true,
  "gnetId": 9568,
  "graphTooltip": 1,
  "id": null,
  "iteration": 1625925261885,
  "links": [],
  "panels": [
    {
      "datasource": null,
      "fieldConfig": {
        "defaults": {
          "color": {
            "mode": "palette-classic"
          },
          "custom": {
            "axisLabel": "",
            "axisPlacement": "auto",
            "axisSoftMin": 0,
            "fillOpacity": 80,
            "gradientMode": "opacity",
            "hideFrom": {
              "legend": false,
              "tooltip": false,
              "viz": false
            },
            "lineWidth": 1
          },
          "displayName": "Number of Successful Requests Per End point",
          "mappings": [],
          "thresholds": {
            "mode": "absolute",
            "steps": [
              {
                "color": "green",
                "value": null
              },
              {
                "color": "red",
                "value": 80
              }
            ]
          }
        },
        "overrides": []
      },
      "gridPos": {
        "h": 17,
        "w": 23,
        "x": 0,
        "y": 0
      },
      "id": 151,
      "options": {
        "barWidth": 0.75,
        "groupWidth": 0.7,
        "legend": {
          "calcs": [
            "sum"
          ],
          "displayMode": "list",
          "placement": "bottom"
        },
        "orientation": "horizontal",
        "showValue": "auto",
        "text": {},
        "tooltip": {
          "mode": "single"
        }
      },
      "targets": [
        {
          "exemplar": true,
          "expr": "http_client_requests_seconds_count{outcome=\"SUCCESS\"}",
          "format": "table",
          "interval": "",
          "legendFormat": "",
          "refId": "A"
        }
      ],
      "title": "Successful Rest Calls",
      "transformations": [
        {
          "id": "groupBy",
          "options": {
            "fields": {
              "Value #A": {
                "aggregations": [
                  "count"
                ],
                "operation": "aggregate"
              },
              "uri": {
                "aggregations": [],
                "operation": "groupby"
              }
            }
          }
        }
      ],
      "type": "barchart"
    },
    {
        "datasource": null,
        "fieldConfig": {
           "defaults": {
              "color": {
                 "fixedColor": "red",
                 "mode": "fixed"
              },
              "custom": {
                 "axisLabel": "",
                 "axisPlacement": "auto",
                 "axisSoftMin": 0,
                 "fillOpacity": 80,
                 "gradientMode": "opacity",
                 "hideFrom": {
                    "legend": false,
                    "tooltip": false,
                    "viz": false
                 },
                 "lineWidth": 1
              },
              "displayName": "Number of Failed Requests Per End point",
              "mappings": [

              ],
              "thresholds": {
                 "mode": "absolute",
                 "steps": [
                    {
                       "color": "green",
                       "value": null
                    },
                    {
                       "color": "red",
                       "value": 80
                    }
                 ]
              }
           },
           "overrides": [

           ]
        },
        "gridPos": {
           "h": 17,
           "w": 23,
           "x": 0,
           "y": 17
        },
        "id": 152,
        "options": {
           "barWidth": 0.09,
           "groupWidth": 0.7,
           "legend": {
              "calcs": [
                 "sum"
              ],
              "displayMode": "list",
              "placement": "bottom"
           },
           "orientation": "vertical",
           "showValue": "never",
           "stacking": "none",
           "text": {

           },
           "tooltip": {
              "mode": "single"
           }
        },
        "targets": [
           {
              "exemplar": true,
              "expr": "http_client_requests_seconds_count{outcome !=\"SUCCESS\"}",
              "format": "table",
              "interval": "",
              "legendFormat": "",
              "refId": "A"
           }
        ],
        "title": "Failed Rest Calls",
        "transformations": [
           {
              "id": "groupBy",
              "options": {
                 "fields": {
                    "Value #A": {
                       "aggregations": [
                          "count"
                       ],
                       "operation": "aggregate"
                    },
                    "uri": {
                       "aggregations": [

                       ],
                       "operation": "groupby"
                    }
                 }
              }
           }
        ],
        "type": "barchart"
     }
  ],
  "refresh": "1m",
  "schemaVersion": 30,
  "style": "dark",
  "tags": [],
  "time": {
    "from": "now-24h",
    "to": "now"
  },
  "timepicker": {
    "now": true,
    "refresh_intervals": [
      "5s",
      "10s",
      "30s",
      "1m",
      "5m",
      "15m",
      "30m",
      "1h",
      "2h",
      "1d"
    ],
    "time_options": [
      "5m",
      "15m",
      "1h",
      "6h",
      "12h",
      "24h",
      "2d",
      "7d",
      "30d"
    ]
  },
  "timezone": "browser",
  "title": "Vyne Query Server Rest Calls",
  "uid": "vyne_rest_calls",
  "version": 1
}
