<?xml version="1.0" encoding="UTF-8"?>
<svg width="38" height="38" viewBox="0 0 48 48" fill="none" xmlns="http://www.w3.org/2000/svg">
  <path
    d="M24.0033 4L29.2737 9.27038H38.7296V18.7263L44 23.9967L38.7296 29.2737V38.7296H29.2737L24.0033 44L18.7264 38.7296H9.27036V29.2737L4 23.9967L9.27036 18.7263V9.27038H18.7264L24.0033 4Z"
    fill="none" stroke="#4f46e5" stroke-width="2" stroke-miterlimit="10" stroke-linecap="round"
    stroke-linejoin="round"/>
  <path d="M17 23.9967H31" stroke="#4f46e5" stroke-width="2" stroke-miterlimit="10" stroke-linecap="round"
        stroke-linejoin="round"/>
  <path d="M24.0039 17V31" stroke="#4f46e5" stroke-width="2" stroke-miterlimit="10" stroke-linecap="round"
        stroke-linejoin="round"/>
</svg>
