<?xml version="1.0" encoding="UTF-8"?>
<svg width="38" height="38" viewBox="0 0 48 48" fill="none" xmlns="http://www.w3.org/2000/svg">
  <path d="M42 26.25V9C42 7.34315 40.6569 6 39 6H9C7.34315 6 6 7.34315 6 9V39C6 40.6569 7.34315 42 9 42H21.75"
        stroke="#4f46e5" stroke-width="2" stroke-linecap="round" stroke-linejoin="round"/>
  <path d="M42 34L24 34" stroke="#4f46e5" stroke-width="2" stroke-linecap="round"/>
  <path d="M30 40L24 34L30 28" stroke="#4f46e5" stroke-width="2" stroke-linecap="round" stroke-linejoin="round"/>
</svg>
