<?xml version="1.0" encoding="UTF-8"?>
<svg width="38" height="38" viewBox="0 0 48 48" fill="none" xmlns="http://www.w3.org/2000/svg">
  <g clip-path="url(#icon-d1ea8b4881a6d40)">
    <path d="M21 4.37207L4.02944 21.3426L26.6569 43.9701L43.6274 26.9995" stroke="#4f46e5" stroke-width="2"
          stroke-linecap="round" stroke-linejoin="round"/>
    <path d="M26.6572 10.0288L9.68666 26.9994" stroke="#4f46e5" stroke-width="2" stroke-linecap="round"
          stroke-linejoin="round"/>
    <path d="M32.3135 15.6855L15.3429 32.6561" stroke="#4f46e5" stroke-width="2" stroke-linecap="round"
          stroke-linejoin="round"/>
    <path d="M37.9707 21.3428L21.0001 38.3133" stroke="#4f46e5" stroke-width="2" stroke-linecap="round"
          stroke-linejoin="round"/>
    <path
      d="M16.0504 41.8487L20.2931 37.606L10.3936 27.7065L6.15091 31.9492L8.27223 34.0705L9.68645 38.3131L13.9291 39.7274L16.0504 41.8487Z"
      fill="none" stroke="#4f46e5" stroke-width="2" stroke-linecap="round" stroke-linejoin="round"/>
  </g>
  <defs>
    <clipPath id="icon-d1ea8b4881a6d40">
      <rect width="48" height="48" fill="#4f46e5"/>
    </clipPath>
  </defs>
</svg>
