<?xml version="1.0" encoding="UTF-8"?>
<svg width="38" height="38" viewBox="0 0 48 48" fill="none" xmlns="http://www.w3.org/2000/svg">
  <rect x="6" y="6" width="36" height="36" rx="3" fill="none" stroke="#4f46e5" stroke-width="2" stroke-linecap="round"
        stroke-linejoin="round"/>
  <path d="M12 24H16" stroke="#4f46e5" stroke-width="2" stroke-linecap="round"/>
  <path d="M12 18H24" stroke="#4f46e5" stroke-width="2" stroke-linecap="round"/>
  <path d="M12 12H20" stroke="#4f46e5" stroke-width="2" stroke-linecap="round"/>
</svg>
