<?xml version="1.0" encoding="UTF-8"?>
<svg width="38" height="38" viewBox="0 0 48 48" fill="none" xmlns="http://www.w3.org/2000/svg">
  <line x1="14" y1="8" x2="34" y2="8" stroke="#4f46e5" stroke-width="2" stroke-linecap="round"/>
  <line x1="14" y1="8" x2="34" y2="8" stroke="#4f46e5" stroke-width="2" stroke-linecap="round"/>
  <line x1="14" y1="40" x2="34" y2="40" stroke="#4f46e5" stroke-width="2" stroke-linecap="round"/>
  <rect x="36" y="4" width="8" height="8" rx="2" fill="none" stroke="#4f46e5" stroke-width="2" stroke-linejoin="round"/>
  <rect x="4" y="4" width="8" height="8" rx="2" fill="none" stroke="#4f46e5" stroke-width="2" stroke-linejoin="round"/>
  <rect x="36" y="36" width="8" height="8" rx="2" fill="none" stroke="#4f46e5" stroke-width="2"
        stroke-linejoin="round"/>
  <rect x="4" y="36" width="8" height="8" rx="2" fill="none" stroke="#4f46e5" stroke-width="2" stroke-linejoin="round"/>
  <line x1="40" y1="14" x2="40" y2="34" stroke="#4f46e5" stroke-width="2" stroke-linecap="round"/>
  <line x1="8" y1="14" x2="8" y2="34" stroke="#4f46e5" stroke-width="2" stroke-linecap="round"/>
</svg>
