<?xml version="1.0" encoding="UTF-8"?>
<svg width="38" height="38" viewBox="0 0 48 48" fill="none" xmlns="http://www.w3.org/2000/svg">
  <path d="M40 35C40 25.7953 32.8366 10 24 10C15.1634 10 8 25.7953 8 35" stroke="#4f46e5" stroke-width="2"
        stroke-linecap="round" stroke-linejoin="round"/>
  <rect x="4" y="35" width="8" height="8" fill="none" stroke="#4f46e5" stroke-width="2" stroke-linejoin="round"/>
  <rect x="4" y="6" width="8" height="8" fill="none" stroke="#4f46e5" stroke-width="2" stroke-linejoin="round"/>
  <rect x="36" y="35" width="8" height="8" fill="none" stroke="#4f46e5" stroke-width="2" stroke-linejoin="round"/>
  <rect x="36" y="6" width="8" height="8" fill="none" stroke="#4f46e5" stroke-width="2" stroke-linejoin="round"/>
  <path d="M12 10H36" stroke="#4f46e5" stroke-width="2" stroke-linecap="round" stroke-linejoin="round"/>
</svg>
