<?xml version="1.0" encoding="UTF-8"?>
<svg width="38" height="38" viewBox="0 0 48 48" fill="none" xmlns="http://www.w3.org/2000/svg">
  <path d="M43.9011 36H4.09863C5.10208 25.8934 13.6292 18 23.9999 18C34.3706 18 42.8977 25.8934 43.9011 36Z" fill="none"
        stroke="#4f46e5" stroke-width="2" stroke-linejoin="round"/>
  <path d="M14 20L10 13" stroke="#4f46e5" stroke-width="2" stroke-linecap="round" stroke-linejoin="round"/>
  <path d="M33 20L37 13" stroke="#4f46e5" stroke-width="2" stroke-linecap="round" stroke-linejoin="round"/>
  <circle cx="15" cy="29" r="2" fill="#4f46e5"/>
  <circle cx="33" cy="29" r="2" fill="#4f46e5"/>
</svg>
