<?xml version="1.0" encoding="UTF-8"?>
<svg width="38" height="38" viewBox="0 0 48 48" fill="none" xmlns="http://www.w3.org/2000/svg">
  <circle cx="24" cy="8" r="5" fill="none" stroke="#4f46e5" stroke-width="2" stroke-linecap="round"
          stroke-linejoin="round"/>
  <path d="M5 28C5 28 22 7.75 43 28" stroke="#4f46e5" stroke-width="2" stroke-linecap="round"/>
  <path
    d="M19 28V24.2105C19 24.2105 19 19 24 19C29 19 29 24.2105 29 24.2105V28V32C29 32 29 37 24 37C19 37 19 32 19 32V28Z"
    fill="none" stroke="#4f46e5" stroke-width="2" stroke-linecap="round" stroke-linejoin="round"/>
  <path d="M29 32L37 37L31 44" stroke="#4f46e5" stroke-width="2" stroke-linecap="round" stroke-linejoin="round"/>
  <path d="M19 32L11 37L17 44" stroke="#4f46e5" stroke-width="2" stroke-linecap="round" stroke-linejoin="round"/>
</svg>
