<?xml version="1.0" encoding="UTF-8"?>
<svg width="38" height="38" viewBox="0 0 48 48" fill="none" xmlns="http://www.w3.org/2000/svg">
  <path d="M5 16L24 6L43 16L24 26L5 16Z" fill="none" stroke="#4f46e5" stroke-width="2" stroke-linecap="round"
        stroke-linejoin="round"/>
  <path
    d="M11 20V34.464C11 35.9282 12.0551 37.1872 13.4711 37.5594C15.6758 38.139 19.0564 39.2194 22.3562 41.0292C23.3775 41.5893 24.6225 41.5893 25.6438 41.0292C28.9436 39.2194 32.3242 38.139 34.5289 37.5594C35.9449 37.1872 37 35.9282 37 34.464V20"
    stroke="#4f46e5" stroke-width="2" stroke-linejoin="round"/>
  <path d="M43 16L43 32" stroke="#4f46e5" stroke-width="2" stroke-linecap="round" stroke-linejoin="round"/>
</svg>
