<?xml version="1.0" encoding="UTF-8"?>
<svg width="38" height="38" viewBox="0 0 48 48" fill="none" xmlns="http://www.w3.org/2000/svg">
  <path
    d="M29.7961 24H16.2039C16.2039 24 12.2176 31.7083 18.7524 34.8333C22.9346 37.3333 16.2039 44 16.2039 44H29.7962C29.7962 44 23.0654 36.7083 27.2476 34.8333C33.7824 31.7083 29.7961 24 29.7961 24Z"
    fill="none" stroke="#4f46e5" stroke-width="2" stroke-linecap="round" stroke-linejoin="round"/>
  <path d="M37 10L30 24H16L9 10C9 10 12 4 23 4C34 4 37 10 37 10Z" stroke="#4f46e5" stroke-width="2"
        stroke-linecap="round" stroke-linejoin="round"/>
  <path d="M25 24L27 12" stroke="#4f46e5" stroke-width="2" stroke-linecap="round" stroke-linejoin="round"/>
  <path d="M21 24L19 12" stroke="#4f46e5" stroke-width="2" stroke-linecap="round" stroke-linejoin="round"/>
</svg>
