<?xml version="1.0" encoding="UTF-8"?>
<svg width="38" height="38" viewBox="0 0 48 48" fill="none" xmlns="http://www.w3.org/2000/svg">
  <rect x="14" y="44" width="36" height="20" rx="2" transform="rotate(-90 14 44)" fill="none" stroke="#4f46e5"
        stroke-width="2" stroke-linecap="round" stroke-linejoin="round"/>
  <path d="M20 6L20 4C20 2.89543 20.8954 2 22 2L26 2C27.1046 2 28 2.89543 28 4L28 6L20 6Z" fill="#4f46e5"/>
  <path d="M24 28L24 18" stroke="#4f46e5" stroke-width="2" stroke-linecap="round" stroke-linejoin="round"/>
  <circle r="2" transform="matrix(-1.31134e-07 -1 -1 1.31134e-07 24 34)" fill="#4f46e5"/>
</svg>
