<?xml version="1.0" encoding="UTF-8"?>
<svg width="38" height="38" viewBox="0 0 48 48" fill="none" xmlns="http://www.w3.org/2000/svg">
  <path d="M40 24H12L14.5 34H36L40 24Z" fill="none" stroke="#4f46e5" stroke-width="2" stroke-linecap="round"
        stroke-linejoin="round"/>
  <path d="M12 24L8 15H3.5" stroke="#4f46e5" stroke-width="2" stroke-linecap="round" stroke-linejoin="round"/>
  <circle cx="20" cy="41" r="3" fill="none" stroke="#4f46e5" stroke-width="2" stroke-linecap="round"
          stroke-linejoin="round"/>
  <circle cx="31" cy="41" r="3" fill="none" stroke="#4f46e5" stroke-width="2" stroke-linecap="round"
          stroke-linejoin="round"/>
  <path d="M23 8L32 24H40L44 13C41.6667 10 37 4 34 4C30 4 25.6667 6.66667 23 8Z" fill="none" stroke="#4f46e5"
        stroke-width="2" stroke-linecap="round" stroke-linejoin="round"/>
  <path d="M29 5L33 12" stroke="#4f46e5" stroke-width="2" stroke-linecap="round" stroke-linejoin="round"/>
</svg>
