<?xml version="1.0" encoding="UTF-8"?>
<svg width="38" height="38" viewBox="0 0 48 48" fill="none" xmlns="http://www.w3.org/2000/svg">
  <path
    d="M4 19V33H12C12 26.3726 17.3726 21 24 21C30.6274 21 36 26.3726 36 33H44V19C44 19 31.9652 15 24 15C16.0348 15 4 19 4 19Z"
    fill="none" stroke="#4f46e5" stroke-width="2" stroke-linecap="round" stroke-linejoin="round"/>
</svg>
