<?xml version="1.0" encoding="UTF-8"?>
<svg width="38" height="38" viewBox="0 0 48 48" fill="none" xmlns="http://www.w3.org/2000/svg">
  <path
    d="M24 15C26.7614 15 29 12.7614 29 10C29 7.23858 26.7614 5 24 5C21.2386 5 19 7.23858 19 10C19 12.7614 21.2386 15 24 15Z"
    fill="none" stroke="#4f46e5" stroke-width="2"/>
  <path d="M24 15V23" stroke="#4f46e5" stroke-width="2" stroke-linecap="round"/>
  <path d="M30 23V33" stroke="#4f46e5" stroke-width="2" stroke-linecap="round"/>
  <path d="M18 23V33" stroke="#4f46e5" stroke-width="2" stroke-linecap="round"/>
  <path d="M7 33V23L41 23.0128V33" stroke="#4f46e5" stroke-width="2" stroke-linecap="round" stroke-linejoin="round"/>
  <path d="M41 41V42" stroke="#4f46e5" stroke-width="2" stroke-linecap="round"/>
  <path d="M7 41V42" stroke="#4f46e5" stroke-width="2" stroke-linecap="round"/>
  <path d="M18 41V42" stroke="#4f46e5" stroke-width="2" stroke-linecap="round"/>
  <path d="M30 41V42" stroke="#4f46e5" stroke-width="2" stroke-linecap="round"/>
</svg>
