<?xml version="1.0" encoding="UTF-8"?>
<svg width="38" height="38" viewBox="0 0 48 48" fill="none" xmlns="http://www.w3.org/2000/svg">
  <path
    d="M24 44C35.0457 44 44 35.0457 44 24C44 12.9543 35.0457 4 24 4C12.9543 4 4 12.9543 4 24C4 35.0457 12.9543 44 24 44Z"
    fill="none" stroke="#4f46e5" stroke-width="2" stroke-linejoin="round"/>
  <path d="M15 33L19.5 19.5L33 15L28.5 28.5L15 33Z" fill="#4f46e5" stroke="#4f46e5" stroke-width="2"
        stroke-linejoin="round"/>
  <path fill-rule="evenodd" clip-rule="evenodd"
        d="M24 26C25.1046 26 26 25.1046 26 24C26 22.8954 25.1046 22 24 22C22.8954 22 22 22.8954 22 24C22 25.1046 22.8954 26 24 26Z"
        fill="#4f46e5"/>
</svg>
