<?xml version="1.0" encoding="UTF-8"?>
<svg width="38" height="38" viewBox="0 0 48 48" fill="none" xmlns="http://www.w3.org/2000/svg">
  <path fill-rule="evenodd" clip-rule="evenodd" d="M4 42H44H4Z" fill="none"/>
  <path d="M4 42H44" stroke="#4f46e5" stroke-width="2" stroke-linecap="round" stroke-linejoin="round"/>
  <rect x="8" y="28" width="6" height="14" fill="none" stroke="#4f46e5" stroke-width="2" stroke-linejoin="round"/>
  <rect x="21" y="18" width="6" height="24" fill="none" stroke="#4f46e5" stroke-width="2" stroke-linejoin="round"/>
  <rect x="34" y="6" width="6" height="36" fill="none" stroke="#4f46e5" stroke-width="2" stroke-linejoin="round"/>
</svg>
