<?xml version="1.0" encoding="UTF-8"?>
<svg width="38" height="38" viewBox="0 0 48 48" fill="none" xmlns="http://www.w3.org/2000/svg">
  <path d="M4 44H44" stroke="#4f46e5" stroke-width="2" stroke-linecap="round" stroke-linejoin="round"/>
  <path d="M13 14H35" stroke="#4f46e5" stroke-width="2" stroke-linecap="round" stroke-linejoin="round"/>
  <path d="M16 14H24H32L36 44H12L16 14Z" fill="none" stroke="#4f46e5" stroke-width="2" stroke-linejoin="round"/>
  <path d="M15 24H33" stroke="#4f46e5" stroke-width="2" stroke-linecap="round"/>
  <path d="M13 34L35 34" stroke="#4f46e5" stroke-width="2" stroke-linecap="round"/>
  <path d="M32 14L36 44" stroke="#4f46e5" stroke-width="2" stroke-linejoin="round"/>
  <path d="M16 14L12 44" stroke="#4f46e5" stroke-width="2" stroke-linejoin="round"/>
  <path
    d="M24 8L24.8284 7.17157C25.5786 6.42143 26.596 6 27.6569 6H28.3431C29.404 6 30.4214 5.57857 31.1716 4.82843L32 4"
    stroke="#4f46e5" stroke-width="2" stroke-linecap="round" stroke-linejoin="round"/>
</svg>
