<?xml version="1.0" encoding="UTF-8"?>
<svg width="38" height="38" viewBox="0 0 48 48" fill="none" xmlns="http://www.w3.org/2000/svg">
  <path d="M4 42H44" stroke="#4f46e5" stroke-width="2" stroke-linecap="round" stroke-linejoin="round"/>
  <rect x="8" y="22" width="12" height="20" rx="2" fill="none" stroke="#4f46e5" stroke-width="2"
        stroke-linejoin="round"/>
  <rect x="20" y="4" width="20" height="38" rx="2" fill="none" stroke="#4f46e5" stroke-width="2"
        stroke-linejoin="round"/>
  <path d="M28 32.0083H32" stroke="#4f46e5" stroke-width="2" stroke-linecap="round" stroke-linejoin="round"/>
  <path d="M12 32.0083H16" stroke="#4f46e5" stroke-width="2" stroke-linecap="round" stroke-linejoin="round"/>
  <path d="M28 23.0083H32" stroke="#4f46e5" stroke-width="2" stroke-linecap="round" stroke-linejoin="round"/>
  <path d="M28 14.0083H32" stroke="#4f46e5" stroke-width="2" stroke-linecap="round" stroke-linejoin="round"/>
</svg>
