<?xml version="1.0" encoding="UTF-8"?>
<svg width="38" height="38" viewBox="0 0 48 48" fill="none" xmlns="http://www.w3.org/2000/svg">
  <path d="M11 44V15C11 12.7909 12.7909 11 15 11C17.2091 11 19 12.7909 19 15V35L42 40V44" stroke="#4f46e5"
        stroke-width="2" stroke-linecap="round" stroke-linejoin="round"/>
  <path
    d="M11 25.2501V25.2501C6.90264 23.65 4 19.664 4 15C4 8.92487 8.92487 4 15 4C21.0751 4 26 8.92487 26 15C26 19.664 23.0974 23.65 19 25.2501"
    stroke="#4f46e5" stroke-width="2" stroke-linecap="round" stroke-linejoin="round"/>
</svg>
