<?xml version="1.0" encoding="UTF-8"?>
<svg width="38" height="38" viewBox="0 0 48 48" fill="none" xmlns="http://www.w3.org/2000/svg">
  <path
    d="M39.3 6H8.7C7.20883 6 6 7.20883 6 8.7V39.3C6 40.7912 7.20883 42 8.7 42H39.3C40.7912 42 42 40.7912 42 39.3V8.7C42 7.20883 40.7912 6 39.3 6Z"
    stroke="#4f46e5" stroke-width="2"/>
  <path d="M24 6L24 42" stroke="#4f46e5" stroke-width="2" stroke-linecap="round"/>
</svg>
