<?xml version="1.0" encoding="UTF-8"?>
<svg width="38" height="38" viewBox="0 0 48 48" fill="none" xmlns="http://www.w3.org/2000/svg">
  <path
    d="M24 44C35.0457 44 44 35.0457 44 24C44 12.9543 35.0457 4 24 4C12.9543 4 4 12.9543 4 24C4 35.0457 12.9543 44 24 44Z"
    fill="none" stroke="#4f46e5" stroke-width="2" stroke-linejoin="round"/>
  <path d="M24 36V12C17.3726 12 12 17.3726 12 24C12 30.6274 17.3726 36 24 36Z" fill="none" stroke="#4f46e5"
        stroke-width="2" stroke-linejoin="round"/>
</svg>
