<?xml version="1.0" encoding="UTF-8"?>
<svg width="38" height="38" viewBox="0 0 48 48" fill="none" xmlns="http://www.w3.org/2000/svg">
  <path d="M13 38H41V16H30V4H13V38Z" fill="none" stroke="#4f46e5" stroke-width="2" stroke-linecap="round"
        stroke-linejoin="round"/>
  <path d="M30 4L41 16" stroke="#4f46e5" stroke-width="2" stroke-linecap="round" stroke-linejoin="round"/>
  <path d="M7 20V44H28" stroke="#4f46e5" stroke-width="2" stroke-linecap="round" stroke-linejoin="round"/>
  <path d="M19 20H23" stroke="#4f46e5" stroke-width="2" stroke-linecap="round"/>
  <path d="M19 28H31" stroke="#4f46e5" stroke-width="2" stroke-linecap="round"/>
</svg>
