<?xml version="1.0" encoding="UTF-8"?>
<svg width="38" height="38" viewBox="0 0 48 48" fill="none" xmlns="http://www.w3.org/2000/svg">
  <circle cx="24" cy="24" r="20" fill="none" stroke="#4f46e5" stroke-width="2" stroke-linecap="round"
          stroke-linejoin="round"/>
  <path d="M24 17H20V24H23H24C27 24 28 22 28 20.5C28 19 27 17 24 17Z" fill="none"/>
  <path d="M20 31V24M20 24L20 17H24C27 17 28 19 28 20.5C28 22 27 24 24 24H23M20 24H23M28 31L23 24" stroke="#4f46e5"
        stroke-width="2" stroke-linecap="round" stroke-linejoin="round"/>
</svg>
