<?xml version="1.0" encoding="UTF-8"?>
<svg width="38" height="38" viewBox="0 0 48 48" fill="none" xmlns="http://www.w3.org/2000/svg">
  <path
    d="M44 31C44 36.5228 39.5228 41 34 41C32.2091 41 30.5281 40.5292 29.0741 39.7046C26.5143 38.2529 24.6579 35.7046 24.1436 32.6983C24.0492 32.1463 24 31.5789 24 31C24 28.4323 24.9678 26.0906 26.5585 24.3198C28.3892 22.2818 31.0449 21 34 21C39.5228 21 44 25.4772 44 31Z"
    fill="none" stroke="#4f46e5" stroke-width="2" stroke-linecap="round" stroke-linejoin="round"/>
  <path
    d="M34 12V20V21C31.0449 21 28.3892 22.2818 26.5585 24.3198C24.9678 26.0906 24 28.4323 24 31C24 31.5789 24.0492 32.1463 24.1436 32.6983C24.6579 35.7046 26.5143 38.2529 29.0741 39.7046C26.4116 40.5096 22.8776 41 19 41C10.7157 41 4 38.7614 4 36V28V20V12"
    stroke="#4f46e5" stroke-width="2" stroke-linecap="round" stroke-linejoin="round"/>
  <path
    d="M34 12C34 14.7614 27.2843 17 19 17C10.7157 17 4 14.7614 4 12C4 9.23858 10.7157 7 19 7C27.2843 7 34 9.23858 34 12Z"
    fill="none" stroke="#4f46e5" stroke-width="2" stroke-linecap="round" stroke-linejoin="round"/>
  <path d="M4 28C4 30.7614 10.7157 33 19 33C20.807 33 22.5393 32.8935 24.1436 32.6983" stroke="#4f46e5" stroke-width="2"
        stroke-linecap="round" stroke-linejoin="round"/>
  <path d="M4 20C4 22.7614 10.7157 25 19 25C21.7563 25 24.339 24.7522 26.5585 24.3198" stroke="#4f46e5" stroke-width="2"
        stroke-linecap="round" stroke-linejoin="round"/>
  <path d="M34 26L31 30L37 32L34 36" stroke="#4f46e5" stroke-width="2" stroke-linecap="round" stroke-linejoin="round"/>
</svg>
