<?xml version="1.0" encoding="UTF-8"?>
<svg width="38" height="38" viewBox="0 0 48 48" fill="none" xmlns="http://www.w3.org/2000/svg">
  <path d="M6 5V30.0036H42V5" stroke="#4f46e5" stroke-width="2" stroke-linecap="round" stroke-linejoin="round"/>
  <path d="M30 37L24 43L18 37" stroke="#4f46e5" stroke-width="2" stroke-linecap="round" stroke-linejoin="round"/>
  <path d="M24 30V43" stroke="#4f46e5" stroke-width="2" stroke-linecap="round" stroke-linejoin="round"/>
  <path d="M18.3442 20.6577L29.6579 9.34401" stroke="#4f46e5" stroke-width="2" stroke-linecap="round"/>
  <path d="M18.3438 9.34326L29.6575 20.657" stroke="#4f46e5" stroke-width="2" stroke-linecap="round"/>
</svg>
