<?xml version="1.0" encoding="UTF-8"?>
<svg width="38" height="38" viewBox="0 0 48 48" fill="none" xmlns="http://www.w3.org/2000/svg">
  <path d="M17 32.4091L24 29L31 32.4091V39.9091L24 44L17 39.9091V32.4091Z" fill="none" stroke="#4f46e5" stroke-width="2"
        stroke-linecap="round" stroke-linejoin="round"/>
  <path d="M8 4C8.45455 12.3333 14 29 24 29C34 29 40 12.7838 40 4" stroke="#4f46e5" stroke-width="2"
        stroke-linecap="round" stroke-linejoin="round"/>
</svg>
