<?xml version="1.0" encoding="UTF-8"?>
<svg width="38" height="38" viewBox="0 0 48 48" fill="none" xmlns="http://www.w3.org/2000/svg">
  <path d="M8 43L8 5" stroke="#4f46e5" stroke-width="2" stroke-linecap="round"/>
  <path d="M40 43L40 5" stroke="#4f46e5" stroke-width="2" stroke-linecap="round"/>
  <rect x="20" y="14" width="8" height="20" fill="none" stroke="#4f46e5" stroke-width="2" stroke-linecap="round"
        stroke-linejoin="round"/>
</svg>
