<?xml version="1.0" encoding="UTF-8"?>
<svg width="38" height="38" viewBox="0 0 49 48" fill="none" xmlns="http://www.w3.org/2000/svg">
  <path d="M24.7778 8C13.7321 8 4.77783 16.9543 4.77783 28H44.7778C44.7778 16.9543 35.8235 8 24.7778 8Z" fill="none"
        stroke="#4f46e5" stroke-width="2" stroke-linecap="round" stroke-linejoin="round"/>
  <path d="M24.7778 4V8" stroke="#4f46e5" stroke-width="2" stroke-linecap="round" stroke-linejoin="round"/>
  <path d="M24.7778 38C19.255 38 14.7778 33.5228 14.7778 28H34.7778C34.7778 33.5228 30.3007 38 24.7778 38Z"
        stroke="#4f46e5" stroke-width="2" stroke-linecap="round" stroke-linejoin="round"/>
  <path d="M40.8118 38.9766L38.7437 36.0231" stroke="#4f46e5" stroke-width="2" stroke-linecap="round"
        stroke-linejoin="round"/>
  <path d="M11.0525 36.2251L8.50298 38.7746" stroke="#4f46e5" stroke-width="2" stroke-linecap="round"
        stroke-linejoin="round"/>
  <path d="M34.7778 42L33.6307 40.3617" stroke="#4f46e5" stroke-width="2" stroke-linecap="round"
        stroke-linejoin="round"/>
  <path d="M15.9114 40.4736L14.4972 41.8878" stroke="#4f46e5" stroke-width="2" stroke-linecap="round"
        stroke-linejoin="round"/>
</svg>
