<?xml version="1.0" encoding="UTF-8"?>
<svg width="38" height="38" viewBox="0 0 48 48" fill="none" xmlns="http://www.w3.org/2000/svg">
  <path d="M40 28L24 40L8 28" stroke="#4f46e5" stroke-width="2" stroke-linecap="round" stroke-linejoin="round"/>
  <path d="M8 10H40" stroke="#4f46e5" stroke-width="2" stroke-linecap="round"/>
  <path d="M8 18H40" stroke="#4f46e5" stroke-width="2" stroke-linecap="round"/>
</svg>
