<?xml version="1.0" encoding="UTF-8"?>
<svg width="38" height="38" viewBox="0 0 48 48" fill="none" xmlns="http://www.w3.org/2000/svg">
  <rect x="6" y="6" width="36" height="36" rx="3" fill="none" stroke="#4f46e5" stroke-width="2" stroke-linecap="round"
        stroke-linejoin="round"/>
  <path d="M26 17V32" stroke="#4f46e5" stroke-width="2" stroke-linecap="round"/>
  <path d="M26 23C26 20.6214 27.6 19 30 19C32.4 19 34 20.5273 34 23C34 24.6484 34 28.707 34 32" stroke="#4f46e5"
        stroke-width="2" stroke-linecap="round"/>
  <path d="M21 16H14V32" stroke="#4f46e5" stroke-width="2" stroke-linecap="round" stroke-linejoin="round"/>
  <path d="M14 24H21" stroke="#4f46e5" stroke-width="2" stroke-linecap="round" stroke-linejoin="round"/>
</svg>
