<?xml version="1.0" encoding="UTF-8"?>
<svg width="38" height="38" viewBox="0 0 48 48" fill="none" xmlns="http://www.w3.org/2000/svg">
  <ellipse cx="24" cy="30" rx="16" ry="6" fill="none" stroke="#4f46e5" stroke-width="2" stroke-linejoin="round"/>
  <ellipse cx="24" cy="14" rx="16" ry="10" fill="none" stroke="#4f46e5" stroke-width="2" stroke-linejoin="round"/>
  <path d="M23 10L18 13" stroke="#4f46e5" stroke-width="2" stroke-linecap="round" stroke-linejoin="round"/>
  <path d="M30 14L25 17" stroke="#4f46e5" stroke-width="2" stroke-linecap="round" stroke-linejoin="round"/>
  <path d="M40 38C40 41.3137 32.8366 44 24 44C15.1634 44 8 41.3137 8 38" stroke="#4f46e5" stroke-width="2"
        stroke-linecap="round" stroke-linejoin="round"/>
  <path d="M40 38V30" stroke="#4f46e5" stroke-width="2" stroke-linecap="round" stroke-linejoin="round"/>
  <path d="M8 38V30" stroke="#4f46e5" stroke-width="2" stroke-linecap="round" stroke-linejoin="round"/>
  <ellipse cx="24" cy="30" rx="7" ry="2" fill="#4f46e5"/>
</svg>
