<?xml version="1.0" encoding="UTF-8"?>
<svg width="38" height="38" viewBox="0 0 48 48" fill="none" xmlns="http://www.w3.org/2000/svg">
  <path d="M10 4H30L40 14V42C40 43.1046 39.1046 44 38 44H10C8.89543 44 8 43.1046 8 42V6C8 4.89543 8.89543 4 10 4Z"
        fill="none" stroke="#4f46e5" stroke-width="2" stroke-linejoin="round"/>
  <path fill-rule="evenodd" clip-rule="evenodd" d="M18 18H30V25.9917L18.0083 26L18 18Z" stroke="#4f46e5"
        stroke-width="2" stroke-linecap="round" stroke-linejoin="round"/>
  <path d="M18 18V34" stroke="#4f46e5" stroke-width="2" stroke-linecap="round"/>
</svg>
