<?xml version="1.0" encoding="UTF-8"?>
<svg width="38" height="38" viewBox="0 0 48 48" fill="none" xmlns="http://www.w3.org/2000/svg">
  <path d="M31 4H16L10 27H18L14 44L40 16H28L31 4Z" fill="none" stroke="#4f46e5" stroke-width="2" stroke-linecap="round"
        stroke-linejoin="round"/>
  <path d="M21 11L19 19" stroke="#4f46e5" stroke-width="2" stroke-linecap="round"/>
</svg>
