<?xml version="1.0" encoding="UTF-8"?>
<svg width="38" height="38" viewBox="0 0 48 48" fill="none" xmlns="http://www.w3.org/2000/svg">
  <path d="M24 6V42" stroke="#4f46e5" stroke-width="2" stroke-linecap="round" stroke-linejoin="round"/>
  <path d="M4 34L16 12V34H4Z" fill="none" stroke="#4f46e5" stroke-width="2" stroke-linejoin="round"/>
  <path d="M44 34H32V12L44 34Z" fill="none" stroke="#4f46e5" stroke-width="2" stroke-linejoin="round"/>
</svg>
