<?xml version="1.0" encoding="UTF-8"?>
<svg width="38" height="38" viewBox="0 0 48 48" fill="none" xmlns="http://www.w3.org/2000/svg">
  <path
    d="M5 9C5 7.89543 5.89543 7 7 7H19L24 13H41C42.1046 13 43 13.8954 43 15V41C43 42.1046 42.1046 43 41 43H7C5.89543 43 5 42.1046 5 41V9Z"
    fill="none" stroke="#4f46e5" stroke-width="2" stroke-linejoin="round"/>
  <path d="M17.9497 28L29.9497 28" stroke="#4f46e5" stroke-width="2" stroke-linecap="round" stroke-linejoin="round"/>
</svg>
