<?xml version="1.0" encoding="UTF-8"?>
<svg width="38" height="38" viewBox="0 0 48 48" fill="none" xmlns="http://www.w3.org/2000/svg">
  <rect x="4" y="8" width="40" height="32" rx="2" fill="none" stroke="#4f46e5" stroke-width="2"
        stroke-linejoin="round"/>
  <path fill-rule="evenodd" clip-rule="evenodd" d="M4 29H44H4Z" fill="none"/>
  <path d="M4 29H44" stroke="#4f46e5" stroke-width="2" stroke-linecap="round" stroke-linejoin="round"/>
  <path fill-rule="evenodd" clip-rule="evenodd" d="M4 19H44H4Z" fill="none"/>
  <path d="M4 19H44" stroke="#4f46e5" stroke-width="2" stroke-linecap="round" stroke-linejoin="round"/>
  <path fill-rule="evenodd" clip-rule="evenodd" d="M17 40V19V40Z" fill="none"/>
  <path d="M17 40V19" stroke="#4f46e5" stroke-width="2" stroke-linecap="round" stroke-linejoin="round"/>
  <path fill-rule="evenodd" clip-rule="evenodd" d="M4 38V17V38Z" fill="none"/>
  <path d="M4 38V17" stroke="#4f46e5" stroke-width="2" stroke-linecap="round" stroke-linejoin="round"/>
  <path fill-rule="evenodd" clip-rule="evenodd" d="M44 38V17V38Z" fill="none"/>
  <path d="M44 38V17" stroke="#4f46e5" stroke-width="2" stroke-linecap="round" stroke-linejoin="round"/>
  <path fill-rule="evenodd" clip-rule="evenodd" d="M31 40V19V40Z" fill="none"/>
  <path d="M31 40V19" stroke="#4f46e5" stroke-width="2" stroke-linecap="round" stroke-linejoin="round"/>
  <path d="M9 40H39" stroke="#4f46e5" stroke-width="2" stroke-linecap="round" stroke-linejoin="round"/>
</svg>
