<?xml version="1.0" encoding="UTF-8"?>
<svg width="38" height="38" viewBox="0 0 48 48" fill="none" xmlns="http://www.w3.org/2000/svg">
  <path d="M16 40H6C4.89543 40 4 39.1046 4 38V10C4 8.89543 4.89543 8 6 8H42C43.1046 8 44 8.89543 44 10V16"
        stroke="#4f46e5" stroke-width="2" stroke-linecap="round" stroke-linejoin="round"/>
  <path
    d="M42 24H26C24.8954 24 24 24.8954 24 26V38C24 39.1046 24.8954 40 26 40H42C43.1046 40 44 39.1046 44 38V26C44 24.8954 43.1046 24 42 24Z"
    fill="none" stroke="#4f46e5" stroke-width="2" stroke-linejoin="round"/>
</svg>
