<?xml version="1.0" encoding="UTF-8"?>
<svg width="38" height="38" viewBox="0 0 48 48" fill="none" xmlns="http://www.w3.org/2000/svg">
  <rect x="10" y="4" width="28" height="40" rx="2" stroke="#4f46e5" stroke-width="2"/>
  <rect x="16" y="12" width="16" height="10" fill="none" stroke="#4f46e5" stroke-width="2" stroke-linecap="round"
        stroke-linejoin="round"/>
  <path d="M16 32L24 32" stroke="#4f46e5" stroke-width="2" stroke-linecap="round" stroke-linejoin="round"/>
  <path d="M20 36V28" stroke="#4f46e5" stroke-width="2" stroke-linecap="round" stroke-linejoin="round"/>
  <rect x="27" y="33" width="4" height="4" rx="2" fill="#4f46e5"/>
  <rect x="30" y="26" width="4" height="4" rx="2" fill="#4f46e5"/>
</svg>
