<?xml version="1.0" encoding="UTF-8"?>
<svg width="38" height="38" viewBox="0 0 48 48" fill="none" xmlns="http://www.w3.org/2000/svg">
  <path d="M23.9627 42L42 27.4152L36.9957 6L30.9661 18.9935H17.9932L11.0151 6L6 27.4152L23.9627 42Z" fill="none"
        stroke="#4f46e5" stroke-width="2" stroke-linejoin="round"/>
</svg>
