<?xml version="1.0" encoding="UTF-8"?>
<svg width="38" height="38" viewBox="0 0 48 48" fill="none" xmlns="http://www.w3.org/2000/svg">
  <path fill-rule="evenodd" clip-rule="evenodd" d="M44 22C44 12.0589 35.0457 4 24 4C12.9543 4 4 12.0589 4 22H44Z"
        fill="none" stroke="#4f46e5" stroke-width="2" stroke-linecap="round" stroke-linejoin="round"/>
  <rect x="4" y="38" width="40" height="6" fill="none" stroke="#4f46e5" stroke-width="2" stroke-linecap="round"
        stroke-linejoin="round"/>
  <path d="M4 28L9.45455 32L16.7273 28L24 32L31.2727 28L38.5455 32L44 28" stroke="#4f46e5" stroke-width="2"
        stroke-linecap="round" stroke-linejoin="round"/>
</svg>
