<?xml version="1.0" encoding="UTF-8"?>
<svg width="38" height="38" viewBox="0 0 48 48" fill="none" xmlns="http://www.w3.org/2000/svg">
  <path
    d="M12.4167 43C10.095 40.0682 8 35.7788 8 31C8 22.1634 15.1634 15 24 15C32.8366 15 40 22.1634 40 31C40 35.7788 37.905 40.0682 35.5833 43"
    stroke="#4f46e5" stroke-width="2" stroke-linecap="round" stroke-linejoin="round"/>
  <path d="M34 13.5L43 5L40 17L35 18L34 13.5Z" fill="none" stroke="#4f46e5" stroke-width="2" stroke-linecap="round"
        stroke-linejoin="round"/>
  <path d="M14 13.5L5 5L8 17L13 18L14 13.5Z" fill="none" stroke="#4f46e5" stroke-width="2" stroke-linecap="round"
        stroke-linejoin="round"/>
</svg>
