<?xml version="1.0" encoding="UTF-8"?>
<svg width="38" height="38" viewBox="0 0 48 48" fill="none" xmlns="http://www.w3.org/2000/svg">
  <path d="M11 32L18 23L24 32L30 23L35 31H44" stroke="#4f46e5" stroke-width="2" stroke-miterlimit="2"
        stroke-linecap="round" stroke-linejoin="round"/>
  <path
    d="M44 19C44 12.9249 39.0751 8 33 8C29.2797 8 25.9907 9.8469 24 12.6738C22.0093 9.8469 18.7203 8 15 8C8.92487 8 4 12.9249 4 19C4 30 17 40 24 42.3262C25.1936 41.9295 26.5616 41.3098 28.0099 40.5"
    stroke="#4f46e5" stroke-width="2" stroke-linecap="round" stroke-linejoin="round"/>
</svg>
