<?xml version="1.0" encoding="UTF-8"?>
<svg width="38" height="38" viewBox="0 0 48 48" fill="none" xmlns="http://www.w3.org/2000/svg">
  <path d="M4 44H44" stroke="#4f46e5" stroke-width="2" stroke-linecap="round"/>
  <path d="M7 44C7 44 12.3125 10 24 10C35.6875 10 41 44 41 44" stroke="#4f46e5" stroke-width="2" stroke-linecap="round"
        stroke-linejoin="round"/>
  <path d="M4 4V44" stroke="#4f46e5" stroke-width="2" stroke-linecap="round" stroke-linejoin="round"/>
</svg>
