<?xml version="1.0" encoding="UTF-8"?>
<svg width="38" height="38" viewBox="0 0 48 48" fill="none" xmlns="http://www.w3.org/2000/svg">
  <path d="M33 5H5V43H33V5Z" fill="none" stroke="#4f46e5" stroke-width="2" stroke-linejoin="round"/>
  <path d="M33 21H43V43H33" stroke="#4f46e5" stroke-width="2" stroke-linecap="round" stroke-linejoin="round"/>
  <path d="M13 21H25" stroke="#4f46e5" stroke-width="2" stroke-linecap="round"/>
  <path d="M19 15V27" stroke="#4f46e5" stroke-width="2" stroke-linecap="round"/>
</svg>
