<?xml version="1.0" encoding="UTF-8"?>
<svg width="38" height="38" viewBox="0 0 48 48" fill="none" xmlns="http://www.w3.org/2000/svg">
  <path d="M24 36C36 36 41 27.9411 41 18H7C7 27.9411 12 36 24 36Z" fill="none" stroke="#4f46e5" stroke-width="2"
        stroke-linecap="round" stroke-linejoin="round"/>
  <path d="M17 35L14 44H34L31 35" stroke="#4f46e5" stroke-width="2" stroke-linecap="round" stroke-linejoin="round"/>
  <path d="M29 18L27.8889 4L20.1111 4L19 18" stroke="#4f46e5" stroke-width="2" stroke-linecap="round"
        stroke-linejoin="round"/>
  <path d="M15 25C15 25 15.0703 26.0703 16 27C16.9297 27.9297 18 28 18 28" stroke="#4f46e5" stroke-width="2"
        stroke-linecap="round"/>
</svg>
