<?xml version="1.0" encoding="UTF-8"?>
<svg width="38" height="38" viewBox="0 0 48 48" fill="none" xmlns="http://www.w3.org/2000/svg">
  <path d="M7 4H41" stroke="#4f46e5" stroke-width="2" stroke-linecap="round" stroke-linejoin="round"/>
  <path d="M7 44H41" stroke="#4f46e5" stroke-width="2" stroke-linecap="round" stroke-linejoin="round"/>
  <path d="M11 44C13.6667 30.6611 18 23.9944 24 24C30 24.0056 34.3333 30.6722 37 44H11Z" fill="none" stroke="#4f46e5"
        stroke-width="2" stroke-linejoin="round"/>
  <path d="M37 4C34.3333 17.3389 30 24.0056 24 24C18 23.9944 13.6667 17.3278 11 4H37Z" fill="none" stroke="#4f46e5"
        stroke-width="2" stroke-linejoin="round"/>
</svg>
