<?xml version="1.0" encoding="UTF-8"?>
<svg width="38" height="38" viewBox="0 0 48 48" fill="none" xmlns="http://www.w3.org/2000/svg">
  <path fill-rule="evenodd" clip-rule="evenodd" d="M38.1684 22.262L19.0766 41.3539L6.34863 28.626L25.4405 9.53409"
        fill="none"/>
  <path d="M38.1684 22.262L19.0766 41.3539L6.34863 28.626L25.4405 9.53409" stroke="#4f46e5" stroke-width="2"
        stroke-linejoin="round"/>
  <path d="M21.9053 5.99854L41.7043 25.7975" stroke="#4f46e5" stroke-width="2" stroke-linecap="round"/>
  <path d="M14.834 28.626L19.0766 32.8686" stroke="#4f46e5" stroke-width="2" stroke-linecap="round"/>
  <path d="M6.34961 41.353L12.7128 34.9898" stroke="#4f46e5" stroke-width="2" stroke-linecap="round"/>
  <path d="M31.8047 15.8979L35.3394 12.3632" stroke="#4f46e5" stroke-width="2" stroke-linecap="round"/>
</svg>
