<?xml version="1.0" encoding="UTF-8"?>
<svg width="38" height="38" viewBox="0 0 48 48" fill="none" xmlns="http://www.w3.org/2000/svg">
  <rect x="5" y="10" width="38" height="30" rx="2" fill="none" stroke="#4f46e5" stroke-width="2"/>
  <path d="M11 27V23" stroke="#4f46e5" stroke-width="2" stroke-linecap="round" stroke-linejoin="round"/>
</svg>
