<?xml version="1.0" encoding="UTF-8"?>
<svg width="38" height="38" viewBox="0 0 48 48" fill="none" xmlns="http://www.w3.org/2000/svg">
  <path d="M15 24H33L31.2 44H16.8L15 24Z" fill="none" stroke="#4f46e5" stroke-width="2" stroke-linecap="round"
        stroke-linejoin="round"/>
  <rect x="11" y="18" width="26" height="6" rx="3" stroke="#4f46e5" stroke-width="2"/>
  <path d="M24 8C18.4772 8 14 12.4772 14 18H34C34 12.4772 29.5228 8 24 8Z" fill="none" stroke="#4f46e5"
        stroke-width="2"/>
  <path d="M28 4L26 8" stroke="#4f46e5" stroke-width="2" stroke-linecap="round"/>
</svg>
