<?xml version="1.0" encoding="UTF-8"?>
<svg width="38" height="38" viewBox="0 0 48 48" fill="none" xmlns="http://www.w3.org/2000/svg">
  <path d="M5 43L43 43" stroke="#4f46e5" stroke-width="2" stroke-linecap="round" stroke-linejoin="round"/>
  <path
    d="M4 25V14.9901C5.21558 14.9901 8.81818 19.1686 10 21L21 23V5L25 7L30.8312 25.9783L40 28C44 29 44 31.5004 44 31.9998C44 35 40.5 35 40 35C36 35 4 25 4 25Z"
    fill="none" stroke="#4f46e5" stroke-width="2" stroke-linecap="round" stroke-linejoin="round"/>
</svg>
