<?xml version="1.0" encoding="UTF-8"?>
<svg width="38" height="38" viewBox="0 0 48 48" fill="none" xmlns="http://www.w3.org/2000/svg">
  <path d="M30 36L18 24L30 12V36Z" fill="none" stroke="#4f46e5" stroke-width="2" stroke-linejoin="round"/>
</svg>
