<?xml version="1.0" encoding="UTF-8"?>
<svg width="38" height="38" viewBox="0 0 48 48" fill="none" xmlns="http://www.w3.org/2000/svg">
  <path d="M11.1139 18L14.877 3.95581L41.9229 11.2027L40.1016 18M7.89848 30L6.07715 36.7973L33.1231 44.0442L36.8862 30"
        stroke="#4f46e5" stroke-width="2" stroke-linecap="round" stroke-linejoin="round"/>
  <path d="M4 24H44" stroke="#4f46e5" stroke-width="2" stroke-linecap="round" stroke-linejoin="round"
        stroke-dasharray="2 6"/>
</svg>
