<?xml version="1.0" encoding="UTF-8"?>
<svg width="38" height="38" viewBox="0 0 48 48" fill="none" xmlns="http://www.w3.org/2000/svg">
  <path
    d="M39.4346 5.32275L40.8488 6.73697C42.4109 8.29906 42.4109 10.8317 40.8488 12.3938L33.7777 19.4649L29.5351 15.2222L39.4346 5.32275Z"
    fill="none" stroke="#4f46e5" stroke-width="2" stroke-linecap="round" stroke-linejoin="round"/>
  <rect x="28.1211" y="13.8076" width="10" height="16" transform="rotate(45 28.1211 13.8076)" fill="none"
        stroke="#4f46e5" stroke-width="2" stroke-linecap="round" stroke-linejoin="round"/>
  <rect x="15.3936" y="23.7075" width="14" height="14" transform="rotate(45 15.3936 23.7075)" fill="none"
        stroke="#4f46e5" stroke-width="2" stroke-linecap="round" stroke-linejoin="round"/>
</svg>
