<svg xmlns="http://www.w3.org/2000/svg" class="icon icon-tabler icon-tabler-clock-code" width="28" height="28" viewBox="0 0 24 24" stroke-width="1.5" stroke="currentColor" fill="none" stroke-linecap="round" stroke-linejoin="round">
    <path stroke="none" d="M0 0h24v24H0z" fill="none"></path>
    <path d="M20.931 13.111a9 9 0 1 0 -9.453 7.874"></path>
    <path d="M20 21l2 -2l-2 -2"></path>
    <path d="M17 17l-2 2l2 2"></path>
    <path d="M12 7v5l2 2"></path>
</svg>
